Verilog/div/div.sim/sim_1/behav/xsim/simulate.log
Vivado Simulator 2019.1
Time resolution is 1 ps
x=                   0 y= 1 q= 2 r= 0 1
x=                   0 y= 1 q= 3 r= 0 1
x=                   0 y= 1 q= 4 r= 0 1
x=                   0 y= 1 q= 5 r= 0 1
x=                   0 y= 1 q= 6 r= 0 1
x=                   0 y= 1 q= 7 r= 0 1
x=                   0 y= 1 q= 8 r= 0 1
x=                   0 y= 1 q= 9 r= 0 1
x=                   0 y= 1 q=10 r= 0 1
x=                   0 y= 1 q=11 r= 0 1
x=                   0 y= 1 q=12 r= 0 1
x=                   0 y= 1 q=13 r= 0 1
x=                   0 y= 1 q=14 r= 0 1
x=                   0 y= 1 q=15 r=15 0
x=                   0 y= 2 q= 1 r= 2 0
x=                   0 y= 2 q= 2 r= 1 0
x=                   0 y= 2 q= 3 r= 0 2
x=                   0 y= 2 q= 4 r= 0 2
x=                   0 y= 2 q= 5 r= 0 2
x=                   0 y= 2 q= 6 r= 0 2
x=                   0 y= 2 q= 7 r= 0 2
x=                   0 y= 2 q= 8 r= 0 2
x=                   0 y= 2 q= 9 r= 0 2
x=                   0 y= 2 q=10 r= 0 2
x=                   0 y= 2 q=11 r= 0 2
x=                   0 y= 2 q=12 r= 0 2
x=                   0 y= 2 q=13 r= 0 2
x=                   0 y= 2 q=14 r=15 0
x=                   0 y= 2 q=15 r=14 0
x=                   0 y= 3 q= 1 r= 3 0
x=                   0 y= 3 q= 2 r= 1 1
x=                   0 y= 3 q= 3 r= 1 0
x=                   0 y= 3 q= 4 r= 0 3
x=                   0 y= 3 q= 5 r= 0 3
x=                   0 y= 3 q= 6 r= 0 3
x=                   0 y= 3 q= 7 r= 0 3
x=                   0 y= 3 q= 8 r= 0 3
x=                   0 y= 3 q= 9 r= 0 3
x=                   0 y= 3 q=10 r= 0 3
x=                   0 y= 3 q=11 r= 0 3
x=                   0 y= 3 q=12 r= 0 3
x=                   0 y= 3 q=13 r=15 0
x=                   0 y= 3 q=14 r=15 1
x=                   0 y= 3 q=15 r=13 0
x=                   0 y= 4 q= 1 r= 4 0
x=                   0 y= 4 q= 2 r= 2 0
x=                   0 y= 4 q= 3 r= 1 1
x=                   0 y= 4 q= 4 r= 1 0
x=                   0 y= 4 q= 5 r= 0 4
x=                   0 y= 4 q= 6 r= 0 4
x=                   0 y= 4 q= 7 r= 0 4
x=                   0 y= 4 q= 8 r= 0 4
x=                   0 y= 4 q= 9 r= 0 4
x=                   0 y= 4 q=10 r= 0 4
x=                   0 y= 4 q=11 r= 0 4
x=                   0 y= 4 q=12 r=15 0
x=                   0 y= 4 q=13 r=15 1
x=                   0 y= 4 q=14 r=14 0
x=                   0 y= 4 q=15 r=12 0
x=                   0 y= 5 q= 1 r= 5 0
x=                   0 y= 5 q= 2 r= 2 1
x=                   0 y= 5 q= 3 r= 1 2
x=                   0 y= 5 q= 4 r= 1 1
x=                   0 y= 5 q= 5 r= 1 0
x=                   0 y= 5 q= 6 r= 0 5
x=                   0 y= 5 q= 7 r= 0 5
x=                   0 y= 5 q= 8 r= 0 5
x=                   0 y= 5 q= 9 r= 0 5
x=                   0 y= 5 q=10 r= 0 5
x=                   0 y= 5 q=11 r=15 0
x=                   0 y= 5 q=12 r=15 1
x=                   0 y= 5 q=13 r=15 2
x=                   0 y= 5 q=14 r=14 1
x=                   0 y= 5 q=15 r=11 0
x=                   0 y= 6 q= 1 r= 6 0
x=                   0 y= 6 q= 2 r= 3 0
x=                   0 y= 6 q= 3 r= 2 0
x=                   0 y= 6 q= 4 r= 1 2
x=                   0 y= 6 q= 5 r= 1 1
x=                   0 y= 6 q= 6 r= 1 0
x=                   0 y= 6 q= 7 r= 0 6
x=                   0 y= 6 q= 8 r= 0 6
x=                   0 y= 6 q= 9 r= 0 6
x=                   0 y= 6 q=10 r=15 0
x=                   0 y= 6 q=11 r=15 1
x=                   0 y= 6 q=12 r=15 2
x=                   0 y= 6 q=13 r=14 0
x=                   0 y= 6 q=14 r=13 0
x=                   0 y= 6 q=15 r=10 0
x=                   0 y= 7 q= 1 r= 7 0
x=                   0 y= 7 q= 2 r= 3 1
x=                   0 y= 7 q= 3 r= 2 1
x=                   0 y= 7 q= 4 r= 1 3
x=                   0 y= 7 q= 5 r= 1 2
x=                   0 y= 7 q= 6 r= 1 1
x=                   0 y= 7 q= 7 r= 1 0
x=                   0 y= 7 q= 8 r= 0 7
x=                   0 y= 7 q= 9 r=15 0
x=                   0 y= 7 q=10 r=15 1
x=                   0 y= 7 q=11 r=15 2
x=                   0 y= 7 q=12 r=15 3
x=                   0 y= 7 q=13 r=14 1
x=                   0 y= 7 q=14 r=13 1
x=                   0 y= 7 q=15 r= 9 0
x=                   0 y= 8 q= 1 r= 8 0
x=                   0 y= 8 q= 2 r=12 0
x=                   0 y= 8 q= 3 r=1414
x=                   0 y= 8 q= 4 r=14 0
x=                   0 y= 8 q= 5 r=1513
x=                   0 y= 8 q= 6 r=1514
x=                   0 y= 8 q= 7 r=1515
x=                   0 y= 8 q= 8 r= 1 0
x=                   0 y= 8 q= 9 r= 115
x=                   0 y= 8 q=10 r= 114
x=                   0 y= 8 q=11 r= 113
x=                   0 y= 8 q=12 r= 2 0
x=                   0 y= 8 q=13 r= 214
x=                   0 y= 8 q=14 r= 4 0
x=                   0 y= 8 q=15 r= 8 0
x=                   0 y= 9 q= 1 r= 9 0
x=                   0 y= 9 q= 2 r=1315
x=                   0 y= 9 q= 3 r=1415
x=                   0 y= 9 q= 4 r=1513
x=                   0 y= 9 q= 5 r=1514
x=                   0 y= 9 q= 6 r=1515
x=                   0 y= 9 q= 7 r=15 0
x=                   0 y= 9 q= 8 r= 0 9
x=                   0 y= 9 q= 9 r= 1 0
x=                   0 y= 9 q=10 r= 115
x=                   0 y= 9 q=11 r= 114
x=                   0 y= 9 q=12 r= 113
x=                   0 y= 9 q=13 r= 215
x=                   0 y= 9 q=14 r= 315
x=                   0 y= 9 q=15 r= 7 0
x=                   0 y=10 q= 1 r=10 0
x=                   0 y=10 q= 2 r=13 0
x=                   0 y=10 q= 3 r=14 0
x=                   0 y=10 q= 4 r=1514
x=                   0 y=10 q= 5 r=1515
x=                   0 y=10 q= 6 r=15 0
x=                   0 y=10 q= 7 r= 010
x=                   0 y=10 q= 8 r= 010
x=                   0 y=10 q= 9 r= 010
x=                   0 y=10 q=10 r= 1 0
x=                   0 y=10 q=11 r= 115
x=                   0 y=10 q=12 r= 114
x=                   0 y=10 q=13 r= 2 0
x=                   0 y=10 q=14 r= 3 0
x=                   0 y=10 q=15 r= 6 0
x=                   0 y=11 q= 1 r=11 0
x=                   0 y=11 q= 2 r=1415
x=                   0 y=11 q= 3 r=1514
x=                   0 y=11 q= 4 r=1515
x=                   0 y=11 q= 5 r=15 0
x=                   0 y=11 q= 6 r= 011
x=                   0 y=11 q= 7 r= 011
x=                   0 y=11 q= 8 r= 011
x=                   0 y=11 q= 9 r= 011
x=                   0 y=11 q=10 r= 011
x=                   0 y=11 q=11 r= 1 0
x=                   0 y=11 q=12 r= 115
x=                   0 y=11 q=13 r= 114
x=                   0 y=11 q=14 r= 215
x=                   0 y=11 q=15 r= 5 0
x=                   0 y=12 q= 1 r=12 0
x=                   0 y=12 q= 2 r=14 0
x=                   0 y=12 q= 3 r=1515
x=                   0 y=12 q= 4 r=15 0
x=                   0 y=12 q= 5 r= 012
x=                   0 y=12 q= 6 r= 012
x=                   0 y=12 q= 7 r= 012
x=                   0 y=12 q= 8 r= 012
x=                   0 y=12 q= 9 r= 012
x=                   0 y=12 q=10 r= 012
x=                   0 y=12 q=11 r= 012
x=                   0 y=12 q=12 r= 1 0
x=                   0 y=12 q=13 r= 115
x=                   0 y=12 q=14 r= 2 0
x=                   0 y=12 q=15 r= 4 0
x=                   0 y=13 q= 1 r=13 0
x=                   0 y=13 q= 2 r=1515
x=                   0 y=13 q= 3 r=15 0
x=                   0 y=13 q= 4 r= 013
x=                   0 y=13 q= 5 r= 013
x=                   0 y=13 q= 6 r= 013
x=                   0 y=13 q= 7 r= 013
x=                   0 y=13 q= 8 r= 013
x=                   0 y=13 q= 9 r= 013
x=                   0 y=13 q=10 r= 013
x=                   0 y=13 q=11 r= 013
x=                   0 y=13 q=12 r= 013
x=                   0 y=13 q=13 r= 1 0
x=                   0 y=13 q=14 r= 115
x=                   0 y=13 q=15 r= 3 0
x=                   0 y=14 q= 1 r=14 0
x=                   0 y=14 q= 2 r=15 0
x=                   0 y=14 q= 3 r= 014
x=                   0 y=14 q= 4 r= 014
x=                   0 y=14 q= 5 r= 014
x=                   0 y=14 q= 6 r= 014
x=                   0 y=14 q= 7 r= 014
x=                   0 y=14 q= 8 r= 014
x=                   0 y=14 q= 9 r= 014
x=                   0 y=14 q=10 r= 014
x=                   0 y=14 q=11 r= 014
x=                   0 y=14 q=12 r= 014
x=                   0 y=14 q=13 r= 014
x=                   0 y=14 q=14 r= 1 0
x=                   0 y=14 q=15 r= 2 0
x=                   0 y=15 q= 1 r=15 0
x=                   0 y=15 q= 2 r= 015
x=                   0 y=15 q= 3 r= 015
x=                   0 y=15 q= 4 r= 015
x=                   0 y=15 q= 5 r= 015
x=                   0 y=15 q= 6 r= 015
x=                   0 y=15 q= 7 r= 015
x=                   0 y=15 q= 8 r= 015
x=                   0 y=15 q= 9 r= 015
x=                   0 y=15 q=10 r= 015
x=                   0 y=15 q=11 r= 015
x=                   0 y=15 q=12 r= 015
x=                   0 y=15 q=13 r= 015
x=                   0 y=15 q=14 r= 015
$stop called at time : 224 ps : File "C:/Users/Karloz/Desktop/div/div.srcs/sim_1/new/div_tb.v" Line 27
